%YAML 1.1
%TAG !u! tag:unity3d.com,2011:
--- !u!1045 &1
EditorBuildSettings:
  m_ObjectHideFlags: 0
  serializedVersion: 2
  m_Scenes:
  - enabled: 1
    path: Assets/Pre-Prototype/Scenes/MenuTest.unity
    guid: 015f31223faddcf47b0d3ad04b7da50a
  - enabled: 1
    path: Assets/Pre-Prototype/Scenes/RoomTest.unity
    guid: 04cb2f90574ddb046b636776892271c4
  - enabled: 1
    path: Assets/Pre-Prototype/Scenes/RoomTest2.unity
    guid: e542a346755e4c342bca8e5b28711a08
  - enabled: 1
    path: Assets/Pre-Prototype/Scenes/Test1.unity
    guid: 903e2b0d7412d7641b4d0351717897d6
  - enabled: 1
    path: Assets/Pre-Prototype/Scenes/PuzzleTest.unity
    guid: dd3de22463a9c744385e9b3dffa4a069
  - enabled: 1
    path: Assets/Pre-Prototype/Scenes/Level1.unity
    guid: 93610bcd8ac601b4486e9c18f4838ccd
